<?xml version="1.0" encoding="utf-8"?>
<!-- Generator: Adobe Illustrator 25.2.0, SVG Export Plug-In . SVG Version: 6.00 Build 0)  -->
<svg version="1.2" baseProfile="tiny" id="Layer_1" xmlns="http://www.w3.org/2000/svg" xmlns:xlink="http://www.w3.org/1999/xlink"
	 x="0px" y="0px" width="266px" height="150px" viewBox="0 0 266 150" overflow="visible" xml:space="preserve">
<path fill="#FFFFFF" d="M0,0h266v150H0V0z"/>
<circle fill="none" stroke="#A0AEC0" stroke-width="2" stroke-linecap="round" stroke-linejoin="round" cx="134.6" cy="70" r="32.8"/>
<polyline fill="none" stroke="#A0AEC0" stroke-width="2" stroke-linecap="round" stroke-linejoin="round" points="134.6,51.8 
	134.6,70 145.5,80.9 "/>
</svg>
